{
    "on_threshold": "80",
    "bright_var_rng": "64",
    "update_rate_hz": "100",
    "rotation_rate_hz": "10",
    "rotation_angle": "1.0",
    "rotation_angle_scaler": "5.0",
    "sparkle_duration_ms": "100",
    "sparkle_brightness": "255",
    "sparkle_trigger_on": "3,8,13"
}